{
  "images": [
    {
      "image": "assets/images/scientist/sanoviv_medical_institute.jpg",
      "caption": "SANOVIV MEDICAL INSTITUTE",
      "id": 0
    },
    {
      "image": "assets/images/scientist/dr_wentz.jpg",
      "caption": "DR MYRON WENTZ",
      "id": 1
    },
    {
      "image": "assets/images/scientist/staff_of_gull_lab.jpg",
      "caption": "GULL LABORATORIES, THE EARLY YEARS",
      "id": 2
    },
    {
      "image": "assets/images/scientist/wentz_at_gull_lab.jpg",
      "caption": "",
      "id": 3
    },
    {
      "image": "assets/images/scientist/wentz_at_gull_lab_2.jpg",
      "caption": "",
      "id": 4
    },
    {
      "image": "assets/images/scientist/wentz_at_gull_lab_3.jpg",
      "caption": "",
      "id": 5
    },
    {
      "image": "assets/images/scientist/wentz_at_gull_lab_4.jpg",
      "caption": "",
      "id": 6
    },
    {
      "image": "assets/images/scientist/gull_lab.jpg",
      "caption": "",
      "id": 7
    },
    {
      "image": "assets/images/scientist/gull_lab_2.jpg",
      "caption": "",
      "id": 8
    },
    {
      "image": "assets/images/scientist/test_kit.jpg",
      "caption": "TEST KITS FROM THE GULL LABORATORIES",
      "id": 9
    },
    {
      "image": "assets/images/scientist/sanoviv_medical_institute_2.jpg",
      "caption": "SANOVIV MEDICAL INSTITUTE",
      "id": 10
    },
    {
      "image": "assets/images/scientist/dr_wentz_2.jpg",
      "caption": "DR MYRON WENTZ",
      "id": 11
    }
  ]
}
